<svg width="48" height="48" viewBox="0 0 48 48" fill="none" xmlns="http://www.w3.org/2000/svg">
<path fill-rule="evenodd" clip-rule="evenodd" d="M23 14V7H25V14H23Z" fill="#444444"/>
<path d="M42 28.4316V23.5684C42 20.6531 40.174 18.0162 37.3527 16.8572L36.2678 16.4115C28.4408 13.1962 19.5592 13.1962 11.7322 16.4115L10.6473 16.8572C7.82599 18.0162 6 20.6531 6 23.5684V28.4316C6 31.3469 7.82599 33.9838 10.6473 35.1428L11.7322 35.5885C19.5592 38.8038 28.4408 38.8038 36.2678 35.5885L37.3527 35.1428C40.174 33.9838 42 31.3469 42 28.4316Z" fill="#E0E0E0"/>
<path d="M16.4879 39.2545L14.8768 39.8048C13.0286 40.4361 11.6251 42.0401 11.0578 44.0244C10.7539 45.0877 11.6933 46 12.8163 46H35.1837C36.3067 46 37.2461 45.0877 36.9422 44.0244C36.3749 42.0401 34.9714 40.4361 33.1232 39.8048L31.5121 39.2545C26.6152 37.5818 21.3848 37.5818 16.4879 39.2545Z" fill="#B3B3B3"/>
<path d="M42 29C43.6569 29 45 27.6569 45 26C45 24.3431 43.6569 23 42 23V29Z" fill="#B3B3B3"/>
<path d="M6 29C4.34315 29 3 27.6569 3 26C3 24.3431 4.34315 23 6 23V29Z" fill="#B3B3B3"/>
<path d="M21.6 25.3996C21.6 28.0506 19.451 30.1996 16.8 30.1996C14.149 30.1996 12 28.0506 12 25.3996C12 22.7486 14.149 20.5996 16.8 20.5996C19.451 20.5996 21.6 22.7486 21.6 25.3996Z" fill="white"/>
<path fill-rule="evenodd" clip-rule="evenodd" d="M16.8 28.1996C18.3464 28.1996 19.6 26.946 19.6 25.3996C19.6 23.8532 18.3464 22.5996 16.8 22.5996C15.2536 22.5996 14 23.8532 14 25.3996C14 26.946 15.2536 28.1996 16.8 28.1996ZM16.8 30.1996C19.451 30.1996 21.6 28.0506 21.6 25.3996C21.6 22.7486 19.451 20.5996 16.8 20.5996C14.149 20.5996 12 22.7486 12 25.3996C12 28.0506 14.149 30.1996 16.8 30.1996Z" fill="#444444"/>
<path d="M35.9999 25.3996C35.9999 28.0506 33.8509 30.1996 31.1999 30.1996C28.5489 30.1996 26.3999 28.0506 26.3999 25.3996C26.3999 22.7486 28.5489 20.5996 31.1999 20.5996C33.8509 20.5996 35.9999 22.7486 35.9999 25.3996Z" fill="white"/>
<path fill-rule="evenodd" clip-rule="evenodd" d="M31.1999 28.1996C32.7463 28.1996 33.9999 26.946 33.9999 25.3996C33.9999 23.8532 32.7463 22.5996 31.1999 22.5996C29.6535 22.5996 28.3999 23.8532 28.3999 25.3996C28.3999 26.946 29.6535 28.1996 31.1999 28.1996ZM31.1999 30.1996C33.8509 30.1996 35.9999 28.0506 35.9999 25.3996C35.9999 22.7486 33.8509 20.5996 31.1999 20.5996C28.5489 20.5996 26.3999 22.7486 26.3999 25.3996C26.3999 28.0506 28.5489 30.1996 31.1999 30.1996Z" fill="#444444"/>
<path d="M27 5C27 6.65685 25.6569 8 24 8C22.3431 8 21 6.65685 21 5C21 3.34315 22.3431 2 24 2C25.6569 2 27 3.34315 27 5Z" fill="#84C459"/>
<path d="M20 32H28V34C28 35.1046 27.1046 36 26 36H22C20.8954 36 20 35.1046 20 34V32Z" fill="#444444"/>
</svg>
